<?xml version="1.0" encoding="UTF-8" standalone="no"?>
<svg
   xmlns:dc="http://purl.org/dc/elements/1.1/"
   xmlns:cc="http://creativecommons.org/ns#"
   xmlns:rdf="http://www.w3.org/1999/02/22-rdf-syntax-ns#"
   xmlns:svg="http://www.w3.org/2000/svg"
   xmlns="http://www.w3.org/2000/svg"
   xmlns:sodipodi="http://sodipodi.sourceforge.net/DTD/sodipodi-0.dtd"
   xmlns:inkscape="http://www.inkscape.org/namespaces/inkscape"
   viewBox="0 0 22 22"
   id="svg2"
   version="1.1"
   inkscape:version="0.91 r13725"
   sodipodi:docname="visibility-on.svg">
  <metadata
     id="metadata10">
    <rdf:RDF>
      <cc:Work
         rdf:about="">
        <dc:format>image/svg+xml</dc:format>
        <dc:type
           rdf:resource="http://purl.org/dc/dcmitype/StillImage" />
      </cc:Work>
    </rdf:RDF>
  </metadata>
  <sodipodi:namedview
     pagecolor="#ffffff"
     bordercolor="#666666"
     borderopacity="1"
     objecttolerance="10"
     gridtolerance="10"
     guidetolerance="10"
     inkscape:pageopacity="0"
     inkscape:pageshadow="2"
     inkscape:window-width="1920"
     inkscape:window-height="995"
     id="namedview8"
     showgrid="false"
     inkscape:zoom="21.454545"
     inkscape:cx="5.999159"
     inkscape:cy="8.936728"
     inkscape:window-x="0"
     inkscape:window-y="0"
     inkscape:window-maximized="1"
     inkscape:current-layer="svg2" />
  <defs
     id="defs3051">
    <style
       type="text/css"
       id="current-color-scheme">
      .ColorScheme-Text {
        color:#4d4d4d;
      }
      </style>
  </defs>
  <path
     style="color:#4d4d4d;fill:currentColor;fill-opacity:1;stroke:none"
     d="M 11.092812,5.2820693 A 12.092428,12.092397 0 0 0 0.58987687,11.413307 c 0.2238418,0.352411 0.53887133,0.637182 0.90929383,0.833717 a 10.883185,10.883158 0 0 1 9.5936413,-5.7557119 4.8369711,4.8369711 0 0 0 -4.8369714,4.8369699 4.8369711,4.8369711 0 0 0 4.8369714,4.836972 4.8369711,4.8369711 0 0 0 4.836971,-4.836972 4.8369711,4.8369711 0 0 0 -4.421294,-4.8157137 10.883185,10.883158 0 0 1 9.175602,5.7368177 c 0.374167,-0.197883 0.691667,-0.486624 0.916379,-0.843164 A 12.092428,12.092397 0 0 0 11.092812,5.2820693 Z m 0,2.4184855 a 3.6277284,3.6277284 0 0 1 3.627728,3.6277272 3.6277284,3.6277284 0 0 1 -3.627728,3.62773 3.6277284,3.6277284 0 0 1 -3.6277286,-3.62773 3.6277284,3.6277284 0 0 1 3.6277286,-3.6277272 z m 0,1.2092428 c -1.339842,0 -2.4184858,1.0786446 -2.4184858,2.4184844 0,1.339842 1.0786438,2.418486 2.4184858,2.418486 1.339841,0 2.418485,-1.078644 2.418485,-2.418486 0,-0.247664 -0.04718,-0.481526 -0.115727,-0.706178 -0.190918,0.415637 -0.604597,0.706178 -1.093515,0.706178 -0.669921,0 -1.209243,-0.539321 -1.209243,-1.209242 0,-0.488917 0.290541,-0.9025928 0.706179,-1.0935141 -0.224652,-0.06854 -0.458514,-0.1157283 -0.706179,-0.1157283 z"
     class="ColorScheme-Text"
     id="path6"
     inkscape:connector-curvature="0" />
</svg>
