<?xml version="1.0" encoding="UTF-8" standalone="no"?>
<!-- Created with Inkscape (http://www.inkscape.org/) -->

<svg
   xmlns:osb="http://www.openswatchbook.org/uri/2009/osb"
   xmlns:dc="http://purl.org/dc/elements/1.1/"
   xmlns:cc="http://creativecommons.org/ns#"
   xmlns:rdf="http://www.w3.org/1999/02/22-rdf-syntax-ns#"
   xmlns:svg="http://www.w3.org/2000/svg"
   xmlns="http://www.w3.org/2000/svg"
   xmlns:sodipodi="http://sodipodi.sourceforge.net/DTD/sodipodi-0.dtd"
   xmlns:inkscape="http://www.inkscape.org/namespaces/inkscape"
   height="48"
   width="48"
   id="svg3213"
   version="1.1"
   inkscape:version="0.92.0 unknown"
   viewBox="0 0 48 48"
   sodipodi:docname="layer-keepout-negative-top.svg">
  <defs
     id="defs3219">
    <linearGradient
       id="linearGradient5669"
       osb:paint="solid">
      <stop
         style="stop-color:#000000;stop-opacity:1;"
         offset="0"
         id="stop5667" />
    </linearGradient>
    <linearGradient
       id="linearGradient5663"
       osb:paint="solid">
      <stop
         style="stop-color:#000000;stop-opacity:1;"
         offset="0"
         id="stop5661" />
    </linearGradient>
    <linearGradient
       id="linearGradient4580"
       osb:paint="solid">
      <stop
         style="stop-color:#000000;stop-opacity:1;"
         offset="0"
         id="stop4578" />
    </linearGradient>
    <inkscape:path-effect
       effect="bspline"
       id="path-effect4540"
       is_visible="true"
       weight="33.333333"
       steps="2"
       helper_size="0"
       apply_no_weight="true"
       apply_with_weight="true"
       only_selected="false" />
    <inkscape:path-effect
       effect="bspline"
       id="path-effect4536"
       is_visible="true"
       weight="33.333333"
       steps="2"
       helper_size="0"
       apply_no_weight="true"
       apply_with_weight="true"
       only_selected="false" />
    <inkscape:path-effect
       effect="bspline"
       id="path-effect4528"
       is_visible="true"
       weight="33.333333"
       steps="2"
       helper_size="0"
       apply_no_weight="true"
       apply_with_weight="true"
       only_selected="false" />
    <inkscape:path-effect
       effect="bspline"
       id="path-effect4524"
       is_visible="true"
       weight="33.333333"
       steps="2"
       helper_size="0"
       apply_no_weight="true"
       apply_with_weight="true"
       only_selected="false" />
    <inkscape:path-effect
       effect="bspline"
       id="path-effect4520"
       is_visible="true"
       weight="33.333333"
       steps="2"
       helper_size="0"
       apply_no_weight="true"
       apply_with_weight="true"
       only_selected="false" />
    <inkscape:path-effect
       effect="bspline"
       id="path-effect4516"
       is_visible="true"
       weight="33.333333"
       steps="2"
       helper_size="0"
       apply_no_weight="true"
       apply_with_weight="true"
       only_selected="false" />
    <inkscape:path-effect
       effect="bspline"
       id="path-effect4512"
       is_visible="true"
       weight="33.333333"
       steps="2"
       helper_size="0"
       apply_no_weight="true"
       apply_with_weight="true"
       only_selected="false" />
    <inkscape:path-effect
       effect="bspline"
       id="path-effect4508"
       is_visible="true"
       weight="33.333333"
       steps="2"
       helper_size="0"
       apply_no_weight="true"
       apply_with_weight="true"
       only_selected="false" />
    <linearGradient
       id="linearGradient4521"
       osb:paint="solid">
      <stop
         style="stop-color:#000000;stop-opacity:1;"
         offset="0"
         id="stop4519" />
    </linearGradient>
    <inkscape:path-effect
       effect="bspline"
       id="path-effect4505"
       is_visible="true"
       weight="33.333333"
       steps="2"
       helper_size="0"
       apply_no_weight="true"
       apply_with_weight="true"
       only_selected="false" />
    <inkscape:path-effect
       effect="bspline"
       id="path-effect4501"
       is_visible="true"
       weight="33.333333"
       steps="2"
       helper_size="0"
       apply_no_weight="true"
       apply_with_weight="true"
       only_selected="false" />
    <inkscape:path-effect
       effect="bspline"
       id="path-effect4497"
       is_visible="true"
       weight="33.333333"
       steps="2"
       helper_size="0"
       apply_no_weight="true"
       apply_with_weight="true"
       only_selected="false" />
    <inkscape:path-effect
       effect="bspline"
       id="path-effect4493"
       is_visible="true"
       weight="33.333333"
       steps="2"
       helper_size="0"
       apply_no_weight="true"
       apply_with_weight="true"
       only_selected="false" />
  </defs>
  <sodipodi:namedview
     pagecolor="#ffffff"
     bordercolor="#666666"
     borderopacity="1"
     objecttolerance="50"
     gridtolerance="10000"
     guidetolerance="10000"
     inkscape:pageopacity="0"
     inkscape:pageshadow="2"
     inkscape:window-width="1920"
     inkscape:window-height="1015"
     id="namedview3217"
     showgrid="true"
     inkscape:zoom="12.805169"
     inkscape:cx="11.86319"
     inkscape:cy="17.314724"
     inkscape:window-x="0"
     inkscape:window-y="0"
     inkscape:window-maximized="1"
     inkscape:current-layer="layer1"
     showguides="true"
     inkscape:snap-tangential="true"
     inkscape:snap-perpendicular="true"
     inkscape:guide-bbox="true"
     inkscape:snap-to-guides="true"
     inkscape:snap-page="false"
     inkscape:snap-object-midpoints="false"
     inkscape:snap-nodes="true"
     inkscape:lockguides="true">
    <inkscape:grid
       type="xygrid"
       id="grid3269"
       empspacing="5"
       dotted="false"
       originx="24"
       originy="24" />
    <sodipodi:guide
       position="0,24"
       orientation="0,1"
       inkscape:locked="true"
       id="guide4507"
       inkscape:label=""
       inkscape:color="rgb(0,0,0)" />
    <sodipodi:guide
       position="24,44"
       orientation="1,0"
       inkscape:locked="true"
       id="guide4509"
       inkscape:label=""
       inkscape:color="rgb(0,0,0)" />
    <sodipodi:guide
       position="48,0"
       orientation="-0.70710678,-0.70710678"
       inkscape:locked="true"
       id="guide4511"
       inkscape:label=""
       inkscape:color="rgb(0,0,0)" />
    <sodipodi:guide
       position="0,0"
       orientation="-0.70710678,0.70710678"
       inkscape:locked="true"
       id="guide4513"
       inkscape:label=""
       inkscape:color="rgb(0,0,0)" />
    <sodipodi:guide
       position="10,46"
       orientation="0,1"
       inkscape:locked="true"
       id="guide4535"
       inkscape:label="Vertical"
       inkscape:color="rgb(255,0,0)" />
    <sodipodi:guide
       position="46,38"
       orientation="1,0"
       inkscape:locked="true"
       id="guide4537"
       inkscape:label="Horizontal"
       inkscape:color="rgb(0,255,0)" />
    <sodipodi:guide
       position="38,2"
       orientation="0,1"
       inkscape:locked="true"
       id="guide4539"
       inkscape:label="Vertical"
       inkscape:color="rgb(255,0,0)" />
    <sodipodi:guide
       position="46,10"
       orientation="0,1"
       id="guide4530"
       inkscape:locked="true"
       inkscape:label="Horizontal"
       inkscape:color="rgb(0,255,0)" />
    <sodipodi:guide
       position="2,38"
       orientation="0,1"
       id="guide4532"
       inkscape:locked="true"
       inkscape:label="Horizontal"
       inkscape:color="rgb(0,255,0)" />
    <sodipodi:guide
       position="2,10"
       orientation="1,0"
       id="guide4544"
       inkscape:locked="true"
       inkscape:label="Horizontal"
       inkscape:color="rgb(0,255,0)" />
    <sodipodi:guide
       position="38,46"
       orientation="1,0"
       id="guide4546"
       inkscape:locked="true"
       inkscape:label="Vertical"
       inkscape:color="rgb(255,0,0)" />
    <sodipodi:guide
       position="10,2"
       orientation="1,0"
       id="guide4548"
       inkscape:locked="true"
       inkscape:label="Vertical"
       inkscape:color="rgb(255,0,0)" />
    <sodipodi:guide
       position="14,34"
       orientation="0,1"
       id="guide4556"
       inkscape:locked="true"
       inkscape:label=""
       inkscape:color="rgb(0,0,0)" />
    <sodipodi:guide
       position="34,14"
       orientation="0,1"
       id="guide4558"
       inkscape:locked="true"
       inkscape:label=""
       inkscape:color="rgb(0,0,0)" />
    <sodipodi:guide
       position="34,34"
       orientation="1,0"
       id="guide4564"
       inkscape:locked="true"
       inkscape:label=""
       inkscape:color="rgb(0,0,0)" />
    <sodipodi:guide
       position="14,34"
       orientation="1,0"
       id="guide4566"
       inkscape:locked="true"
       inkscape:label=""
       inkscape:color="rgb(0,0,0)" />
    <sodipodi:guide
       position="5,43"
       orientation="1,0"
       id="guide4568"
       inkscape:locked="true"
       inkscape:label="Square"
       inkscape:color="rgb(0,0,255)" />
    <sodipodi:guide
       position="5,5"
       orientation="0,1"
       id="guide4570"
       inkscape:locked="true"
       inkscape:label="Square"
       inkscape:color="rgb(0,0,255)" />
    <sodipodi:guide
       position="43,5"
       orientation="1,0"
       id="guide4572"
       inkscape:locked="true"
       inkscape:label="Square"
       inkscape:color="rgb(0,0,255)" />
    <sodipodi:guide
       position="43,43"
       orientation="0,1"
       id="guide4574"
       inkscape:locked="true"
       inkscape:label="Square"
       inkscape:color="rgb(0,0,255)" />
  </sodipodi:namedview>
  <metadata
     id="metadata3215">
    <rdf:RDF>
      <cc:Work
         rdf:about="">
        <dc:format>image/svg+xml</dc:format>
        <dc:type
           rdf:resource="http://purl.org/dc/dcmitype/StillImage" />
        <dc:title></dc:title>
      </cc:Work>
    </rdf:RDF>
  </metadata>
  <g
     inkscape:groupmode="layer"
     id="layer1"
     inkscape:label="Layer 1">
    <rect
       style="opacity:0.86000001;fill:none;fill-opacity:1;stroke:none;stroke-width:0.37795276;stroke-linecap:square;stroke-linejoin:miter;stroke-miterlimit:4;stroke-dasharray:none;stroke-opacity:1"
       id="rect4541"
       width="32"
       height="44"
       x="-10"
       y="-2"
       rx="2"
       ry="2" />
    <rect
       style="opacity:1;fill:#808080;fill-opacity:1;stroke:none;stroke-width:4;stroke-linecap:round;stroke-linejoin:bevel;stroke-miterlimit:4;stroke-dasharray:none;stroke-opacity:1"
       id="rect6433"
       width="9"
       height="10"
       x="34"
       y="5"
       rx="1"
       ry="0.99999994" />
    <rect
       style="opacity:1;fill:#bfbfbf;fill-opacity:1;stroke:none;stroke-width:4;stroke-linecap:round;stroke-linejoin:bevel;stroke-miterlimit:4;stroke-dasharray:none;stroke-opacity:1"
       id="rect6435"
       width="9"
       height="10"
       x="34"
       y="19"
       rx="1"
       ry="0.99999994" />
    <rect
       style="opacity:1;fill:#bfbfbf;fill-opacity:1;stroke:none;stroke-width:4;stroke-linecap:round;stroke-linejoin:bevel;stroke-miterlimit:4;stroke-dasharray:none;stroke-opacity:1"
       id="rect6437"
       width="9"
       height="10"
       x="34"
       y="33"
       rx="1"
       ry="0.99999994" />
    <ellipse
       style="opacity:1;fill:#ff9900;fill-opacity:1;stroke:none;stroke-width:4;stroke-linecap:round;stroke-linejoin:bevel;stroke-miterlimit:4;stroke-dasharray:none;stroke-opacity:1"
       id="path6463"
       cx="20"
       cy="25"
       r="9" />
    <path
       style="color:#000000;font-style:normal;font-variant:normal;font-weight:normal;font-stretch:normal;font-size:medium;line-height:normal;font-family:sans-serif;font-variant-ligatures:normal;font-variant-position:normal;font-variant-caps:normal;font-variant-numeric:normal;font-variant-alternates:normal;font-feature-settings:normal;text-indent:0;text-align:start;text-decoration:none;text-decoration-line:none;text-decoration-style:solid;text-decoration-color:#000000;letter-spacing:normal;word-spacing:normal;text-transform:none;writing-mode:lr-tb;direction:ltr;text-orientation:mixed;dominant-baseline:auto;baseline-shift:baseline;text-anchor:start;white-space:normal;shape-padding:0;clip-rule:nonzero;display:inline;overflow:visible;visibility:visible;opacity:1;isolation:auto;mix-blend-mode:normal;color-interpolation:sRGB;color-interpolation-filters:linearRGB;solid-color:#000000;solid-opacity:1;vector-effect:none;fill:#cc0000;fill-opacity:1;fill-rule:evenodd;stroke:none;stroke-width:6.00000048;stroke-linecap:round;stroke-linejoin:miter;stroke-miterlimit:4;stroke-dasharray:none;stroke-dashoffset:0;stroke-opacity:1;color-rendering:auto;image-rendering:auto;shape-rendering:auto;text-rendering:auto;enable-background:accumulate"
       d="M 7.9980469,10 A 3.0003002,3.0003002 0 0 0 5.9082031,15.152344 L 27.847656,37.091797 a 3.0010609,3.0010609 0 1 0 4.244141,-4.244141 L 10.152344,10.908203 A 3.0003002,3.0003002 0 0 0 7.9980469,10 Z"
       id="path6098"
       inkscape:connector-curvature="0" />
    <path
       style="color:#000000;font-style:normal;font-variant:normal;font-weight:normal;font-stretch:normal;font-size:medium;line-height:normal;font-family:sans-serif;font-variant-ligatures:normal;font-variant-position:normal;font-variant-caps:normal;font-variant-numeric:normal;font-variant-alternates:normal;font-feature-settings:normal;text-indent:0;text-align:start;text-decoration:none;text-decoration-line:none;text-decoration-style:solid;text-decoration-color:#000000;letter-spacing:normal;word-spacing:normal;text-transform:none;writing-mode:lr-tb;direction:ltr;text-orientation:mixed;dominant-baseline:auto;baseline-shift:baseline;text-anchor:start;white-space:normal;shape-padding:0;clip-rule:nonzero;display:inline;overflow:visible;visibility:visible;opacity:1;isolation:auto;mix-blend-mode:normal;color-interpolation:sRGB;color-interpolation-filters:linearRGB;solid-color:#000000;solid-opacity:1;vector-effect:none;fill:#cc0000;fill-opacity:1;fill-rule:evenodd;stroke:none;stroke-width:6;stroke-linecap:round;stroke-linejoin:miter;stroke-miterlimit:4;stroke-dasharray:none;stroke-dashoffset:0;stroke-opacity:1;color-rendering:auto;image-rendering:auto;shape-rendering:auto;text-rendering:auto;enable-background:accumulate"
       d="m 29.912109,10.007812 a 3.0003,3.0003 0 0 0 -2.0625,0.908204 L 5.9101562,32.847656 a 3.0003,3.0003 0 1 0 4.2402348,4.244141 L 32.089844,15.158203 a 3.0003,3.0003 0 0 0 -2.177735,-5.150391 z"
       id="path6100"
       inkscape:connector-curvature="0" />
  </g>
</svg>
